{
  "project_info": {
    "project_number": "116330757321",
    "firebase_url": "https://meal-planer-7fa0a.firebaseio.com",
    "project_id": "meal-planer-7fa0a",
    "storage_bucket": "meal-planer-7fa0a.appspot.com"
  },
  "client": [
    {
      "client_info": {
        "mobilesdk_app_id": "1:116330757321:android:b4eeb3259a017be9d1a118",
        "android_client_info": {
          "package_name": "me.hohoangphilong.mealplaner"
        }
      },
      "oauth_client": [
        {
          "client_id": "116330757321-01mv2e3g7f734ift47qbie8g09eg5s84.apps.googleusercontent.com",
          "client_type": 1,
          "android_info": {
            "package_name": "me.hohoangphilong.mealplaner",
            "certificate_hash": "7eea3e1cde7885617497d9919c0b32b74d5b6717"
          }
        },
        {
          "client_id": "116330757321-6fupt6ov0tic3vjtif144m6tsmkhlhnn.apps.googleusercontent.com",
          "client_type": 3
        }
      ],
      "api_key": [
        {
          "current_key": "AIzaSyDovLog1CuVvHJueJcQGS9MrFFiUweWHdM"
        }
      ],
      "services": {
        "appinvite_service": {
          "other_platform_oauth_client": [
            {
              "client_id": "116330757321-6fupt6ov0tic3vjtif144m6tsmkhlhnn.apps.googleusercontent.com",
              "client_type": 3
            }
          ]
        }
      }
    }
  ],
  "configuration_version": "1"
}